# Exported from 3D Builder
o Object.1
v -10.000000 0.000000 41.336983
v -10.000000 5.900410 34.720341
v -10.000000 0.000000 23.294693
v -10.000000 5.900410 24.045029
v -10.000000 5.935910 22.080200
v -10.000000 44.099586 34.720341
v -10.000000 50.000000 41.336983
v -10.000000 50.000000 24.113243
v -10.000000 49.977798 21.873901
v -10.000000 44.077621 22.043884
v -10.000000 44.099586 24.215561
v -10.000000 49.877899 19.641457
v -10.000000 43.941578 19.887573
v -10.000000 49.633030 17.421837
v -10.000000 43.589729 17.760330
v -10.000000 49.283760 15.211472
v -10.000000 43.076401 15.654854
v -10.000000 48.693993 13.227844
v -10.000000 42.033802 13.764458
v -10.000000 47.940613 11.324753
v -10.000000 46.907761 9.559265
v -10.000000 40.780830 12.059998
v -10.000000 45.702591 7.878593
v -10.000000 39.199642 10.645660
v -10.000000 43.833107 6.016525
v -10.000000 37.431789 9.396332
v -10.000000 41.816299 4.366074
v -10.000000 39.558598 3.061638
v -10.000000 34.550060 8.178246
v -10.000000 37.158939 1.961128
v -10.000000 31.589060 7.303963
v -10.000000 34.250820 1.096519
v -10.000000 31.306870 0.443459
v -10.000000 28.513378 6.927032
v -10.000000 28.306170 0.125450
v -10.000000 25.375172 6.821289
v -10.000000 25.272850 0.000000
v -10.000000 22.714979 0.082191
v -10.000000 22.929920 6.893448
v -10.000000 20.174961 0.295883
v -10.000000 20.503559 7.098198
v -10.000000 17.666210 0.739746
v -10.000000 18.110840 7.539101
v -10.000000 15.177350 1.330154
v -10.000000 15.740109 8.134399
v -10.000000 13.260699 1.980240
v -10.000000 11.394230 2.735970
v -10.000000 14.011030 8.800690
v -10.000000 9.616360 3.678230
v -10.000000 12.359110 9.598030
v -10.000000 7.895640 4.740791
v -10.000000 6.622890 5.742027
v -10.000000 10.842810 10.625687
v -10.000000 5.423430 6.815681
v -10.000000 4.351330 8.015198
v -10.000000 9.413370 11.800827
v -10.000000 3.359480 9.294014
v -10.000000 8.580870 12.813751
v -10.000000 2.550450 10.708672
v -10.000000 7.853540 13.888435
v -10.000000 1.844560 12.167168
v -10.000000 7.290610 15.059639
v -10.000000 1.301800 13.695007
v -10.000000 6.821280 16.285820
v -10.000000 0.852660 15.262627
v -10.000000 0.472760 17.252365
v -10.000000 6.382340 18.198799
v -10.000000 0.187900 19.252510
v -10.000000 6.069110 20.127930
v -10.000000 0.051640 21.268959
v 10.000000 5.900410 34.720341
v 10.000000 5.900410 24.045029
v 10.000000 5.935910 22.080200
v 10.000000 6.069110 20.127930
v 10.000000 6.382340 18.198799
v 10.000000 6.821280 16.285820
v 10.000000 7.290610 15.059639
v 10.000000 7.853540 13.888435
v 10.000000 8.580870 12.813751
v 10.000000 9.413370 11.800827
v 10.000000 10.842810 10.625687
v 10.000000 12.359110 9.598030
v 10.000000 14.011030 8.800690
v 10.000000 15.740109 8.134399
v 10.000000 18.110840 7.539101
v 10.000000 20.503559 7.098198
v 10.000000 22.929920 6.893448
v 10.000000 25.375172 6.821289
v 10.000000 28.513378 6.927032
v 10.000000 31.589060 7.303963
v 10.000000 34.550060 8.178246
v 10.000000 37.431789 9.396332
v 10.000000 39.199642 10.645660
v 10.000000 40.780830 12.059998
v 10.000000 42.033802 13.764458
v 10.000000 43.076401 15.654854
v 10.000000 43.589729 17.760330
v 10.000000 43.941578 19.887573
v 10.000000 44.077621 22.043884
v 10.000000 44.099586 24.215561
v 10.000000 44.099586 34.720341
v 10.000000 0.000000 41.336983
v 10.000000 50.000000 41.336983
v 10.000000 50.000000 24.113243
v 10.000000 49.977798 21.873901
v 10.000000 49.877899 19.641457
v 10.000000 49.633030 17.421837
v 10.000000 49.283760 15.211472
v 10.000000 48.693993 13.227844
v 10.000000 47.940613 11.324753
v 10.000000 46.907761 9.559265
v 10.000000 45.702591 7.878593
v 10.000000 43.833107 6.016525
v 10.000000 41.816299 4.366074
v 10.000000 39.558598 3.061638
v 10.000000 37.158939 1.961128
v 10.000000 34.250820 1.096519
v 10.000000 31.306870 0.443459
v 10.000000 28.306170 0.125450
v 10.000000 25.272850 0.000000
v 10.000000 22.714979 0.082191
v 10.000000 20.174961 0.295883
v 10.000000 17.666210 0.739746
v 10.000000 15.177350 1.330154
v 10.000000 13.260699 1.980240
v 10.000000 11.394230 2.735970
v 10.000000 9.616360 3.678230
v 10.000000 7.895640 4.740791
v 10.000000 6.622890 5.742027
v 10.000000 5.423430 6.815681
v 10.000000 4.351330 8.015198
v 10.000000 3.359480 9.294014
v 10.000000 2.550450 10.708672
v 10.000000 1.844560 12.167168
v 10.000000 1.301800 13.695007
v 10.000000 0.852660 15.262627
v 10.000000 0.472760 17.252365
v 10.000000 0.187900 19.252510
v 10.000000 0.051640 21.268959
v 10.000000 0.000000 23.294693

f 1 2 3
f 3 102 1
f 102 103 1
f 1 103 7
f 6 1 7
f 6 7 8
f 8 11 6
f 11 101 6
f 101 71 6
f 6 71 2
f 71 72 2
f 2 72 4
f 72 73 4
f 4 73 5
f 3 4 5
f 5 70 3
f 70 140 3
f 70 139 140
f 139 73 140
f 73 139 74
f 74 139 138
f 74 138 75
f 69 74 75
f 69 75 67
f 67 68 69
f 69 68 70
f 67 66 68
f 66 138 68
f 66 137 138
f 65 137 66
f 64 65 66
f 64 63 65
f 63 136 65
f 63 135 136
f 76 136 135
f 76 135 77
f 76 77 64
f 67 76 64
f 64 77 62
f 62 77 78
f 62 78 60
f 60 61 62
f 62 61 63
f 60 59 61
f 59 134 61
f 61 134 135
f 59 133 134
f 78 134 133
f 78 133 79
f 79 133 132
f 79 132 80
f 58 79 80
f 58 80 56
f 56 57 58
f 58 57 59
f 56 55 57
f 55 132 57
f 55 131 132
f 54 131 55
f 53 54 55
f 53 52 54
f 52 130 54
f 52 129 130
f 81 130 129
f 81 129 82
f 53 81 82
f 53 82 50
f 50 82 83
f 50 83 48
f 48 49 50
f 50 49 51
f 50 51 52
f 49 128 51
f 128 129 51
f 49 127 128
f 82 128 127
f 47 127 49
f 47 126 127
f 83 127 126
f 83 126 84
f 84 126 125
f 84 125 124
f 84 124 85
f 84 85 45
f 48 84 45
f 45 47 48
f 45 46 47
f 45 44 46
f 44 125 46
f 43 44 45
f 43 42 44
f 42 124 44
f 42 123 124
f 40 123 42
f 41 40 42
f 39 40 41
f 41 87 39
f 39 87 88
f 39 88 36
f 36 38 39
f 36 37 38
f 37 121 38
f 38 121 122
f 38 122 40
f 87 122 121
f 86 122 87
f 86 123 122
f 85 123 86
f 43 85 86
f 43 86 41
f 120 121 37
f 35 120 37
f 35 119 120
f 88 120 119
f 88 119 89
f 89 119 118
f 89 118 90
f 34 89 90
f 34 90 31
f 31 33 34
f 34 33 35
f 34 35 36
f 31 32 33
f 32 118 33
f 32 117 118
f 30 117 32
f 116 117 30
f 28 116 30
f 29 28 30
f 29 30 31
f 31 91 29
f 29 91 92
f 29 92 26
f 92 93 26
f 26 93 24
f 24 25 26
f 26 25 27
f 26 27 28
f 27 115 28
f 27 114 115
f 92 115 114
f 92 114 113
f 25 113 114
f 23 113 25
f 112 113 23
f 21 112 23
f 22 21 23
f 22 23 24
f 24 94 22
f 22 94 95
f 22 95 19
f 19 95 96
f 19 96 17
f 17 18 19
f 19 18 20
f 19 20 21
f 20 111 21
f 20 110 111
f 95 111 110
f 95 110 109
f 18 109 110
f 16 109 18
f 108 109 16
f 14 108 16
f 15 14 16
f 15 16 17
f 17 97 15
f 15 97 98
f 15 98 13
f 13 98 99
f 13 99 10
f 10 12 13
f 13 12 14
f 12 107 14
f 12 106 107
f 98 107 106
f 9 106 12
f 9 105 106
f 99 106 105
f 99 105 104
f 104 100 99
f 104 101 100
f 103 101 104
f 104 105 8
f 8 105 9
f 9 10 8
f 9 12 10
f 10 99 100
f 10 100 11
f 98 106 99
f 97 107 98
f 97 108 107
f 96 108 97
f 13 14 15
f 14 107 108
f 96 109 108
f 18 110 20
f 17 16 18
f 96 97 17
f 95 109 96
f 94 111 95
f 94 112 111
f 93 112 94
f 19 21 22
f 21 111 112
f 93 113 112
f 25 114 27
f 24 23 25
f 24 93 94
f 92 113 93
f 91 115 92
f 91 116 115
f 90 116 91
f 26 28 29
f 28 115 116
f 90 117 116
f 31 30 32
f 31 90 91
f 36 89 34
f 90 118 117
f 33 118 119
f 33 119 35
f 88 121 120
f 36 35 37
f 88 89 36
f 87 121 88
f 41 86 87
f 39 38 40
f 40 122 123
f 41 42 43
f 45 85 43
f 85 124 123
f 124 125 44
f 46 125 126
f 46 126 47
f 48 47 49
f 48 83 84
f 82 127 83
f 56 81 53
f 82 129 128
f 81 131 130
f 80 131 81
f 51 129 52
f 50 52 53
f 54 130 131
f 53 55 56
f 80 81 56
f 60 79 58
f 80 132 131
f 132 133 57
f 57 133 59
f 58 59 60
f 60 78 79
f 77 134 78
f 77 135 134
f 76 137 136
f 75 137 76
f 61 135 63
f 62 63 64
f 136 137 65
f 64 66 67
f 67 75 76
f 5 74 69
f 75 138 137
f 68 138 139
f 68 139 70
f 69 70 5
f 5 73 74
f 140 73 72
f 140 72 71
f 140 71 102
f 102 71 101
f 100 101 11
f 8 10 11
f 7 104 8
f 103 104 7
f 102 101 103
f 140 102 3
f 3 2 4
f 2 1 6


o Object.2
v -10.000000 0.000000 85.504784
v -10.000000 0.000000 91.848572
v -10.000000 39.290588 85.504784
v -10.000000 50.000000 91.848572
v -10.000000 50.000000 85.061401
v -10.000000 10.743521 58.799461
v -10.000000 0.000000 59.242844
v -10.000000 0.000000 52.455673
v -10.000000 50.000000 52.455673
v -10.000000 50.000000 58.799461
v 10.000000 0.000000 91.848572
v 10.000000 50.000000 91.848572
v 10.000000 50.000000 85.061401
v 10.000000 10.743521 58.799461
v 10.000000 50.000000 58.799461
v 10.000000 50.000000 52.455673
v 10.000000 0.000000 52.455673
v 10.000000 0.000000 59.242844
v 10.000000 39.290588 85.504784
v 10.000000 0.000000 85.504784

f 141 142 143
f 143 160 141
f 160 151 141
f 160 159 151
f 151 159 152
f 151 152 142
f 142 152 144
f 152 153 144
f 144 153 145
f 143 144 145
f 145 146 143
f 143 146 147
f 147 159 143
f 158 159 147
f 148 158 147
f 157 158 148
f 149 157 148
f 148 146 149
f 149 146 150
f 150 156 149
f 155 156 150
f 154 156 155
f 154 155 146
f 157 156 154
f 146 155 150
f 156 157 149
f 154 158 157
f 154 159 158
f 153 159 154
f 147 146 148
f 145 154 146
f 153 154 145
f 152 159 153
f 159 160 143
f 143 142 144
f 141 151 142


o Object.3
v -10.000000 5.900410 100.920883
v -10.000000 0.000000 100.920883
v -10.000000 5.900410 131.616653
v -10.000000 0.000000 138.233292
v -10.000000 22.919510 131.616653
v -10.000000 50.000000 138.233292
v -10.000000 28.785810 131.616653
v -10.000000 44.099586 131.616653
v -10.000000 50.000000 102.080490
v -10.000000 44.099586 102.080490
v -10.000000 28.785810 103.956352
v -10.000000 22.919510 103.956352
v 10.000000 0.000000 138.233292
v 10.000000 50.000000 138.233292
v 10.000000 50.000000 102.080490
v 10.000000 44.099586 102.080490
v 10.000000 44.099586 131.616653
v 10.000000 28.785810 131.616653
v 10.000000 28.785810 103.956352
v 10.000000 22.919510 103.956352
v 10.000000 22.919510 131.616653
v 10.000000 5.900410 131.616653
v 10.000000 5.900410 100.920883
v 10.000000 0.000000 100.920883

f 161 162 163
f 163 183 161
f 183 184 161
f 184 183 182
f 184 182 173
f 184 173 162
f 162 173 164
f 173 174 164
f 164 174 166
f 165 164 166
f 165 166 167
f 167 171 165
f 165 171 172
f 172 181 165
f 181 182 165
f 165 182 163
f 180 181 172
f 181 180 178
f 174 181 178
f 174 178 177
f 177 175 174
f 176 175 177
f 176 177 170
f 169 176 170
f 168 169 170
f 168 166 169
f 166 175 169
f 170 177 168
f 175 176 169
f 177 178 168
f 168 178 167
f 178 179 167
f 178 180 179
f 179 180 171
f 171 180 172
f 167 179 171
f 167 166 168
f 163 164 165
f 174 175 166
f 173 181 174
f 173 182 181
f 182 183 163
f 163 162 164
f 161 184 162

